{
  "images" : [
    {
      "filename" : "american-express-trimmed-33.png",
      "idiom" : "universal",
      "scale" : "1x"
    },
    {
      "filename" : "american-express-trimmed-66.png",
      "idiom" : "universal",
      "scale" : "2x"
    },
    {
      "filename" : "american-express-trimmed-99.png",
      "idiom" : "universal",
      "scale" : "3x"
    }
  ],
  "info" : {
    "author" : "xcode",
    "version" : 1
  },
  "properties" : {
    "template-rendering-intent" : "template"
  }
}
