{
  "images" : [
    {
      "idiom" : "universal",
      "scale" : "1x"
    },
    {
      "appearances" : [
        {
          "appearance" : "luminosity",
          "value" : "light"
        }
      ],
      "idiom" : "universal",
      "scale" : "1x"
    },
    {
      "appearances" : [
        {
          "appearance" : "luminosity",
          "value" : "dark"
        }
      ],
      "idiom" : "universal",
      "scale" : "1x"
    },
    {
      "filename" : "DARI 2.png",
      "idiom" : "universal",
      "scale" : "2x"
    },
    {
      "appearances" : [
        {
          "appearance" : "luminosity",
          "value" : "light"
        }
      ],
      "filename" : "DARI 2-1.png",
      "idiom" : "universal",
      "scale" : "2x"
    },
    {
      "appearances" : [
        {
          "appearance" : "luminosity",
          "value" : "dark"
        }
      ],
      "filename" : "DARI dark mode 2.png",
      "idiom" : "universal",
      "scale" : "2x"
    },
    {
      "filename" : "DARI 3.png",
      "idiom" : "universal",
      "scale" : "3x"
    },
    {
      "appearances" : [
        {
          "appearance" : "luminosity",
          "value" : "light"
        }
      ],
      "filename" : "DARI 3-1.png",
      "idiom" : "universal",
      "scale" : "3x"
    },
    {
      "appearances" : [
        {
          "appearance" : "luminosity",
          "value" : "dark"
        }
      ],
      "filename" : "DARI dark mode 3.png",
      "idiom" : "universal",
      "scale" : "3x"
    },
    {
      "idiom" : "universal",
      "locale" : "ar",
      "scale" : "1x"
    },
    {
      "appearances" : [
        {
          "appearance" : "luminosity",
          "value" : "light"
        }
      ],
      "idiom" : "universal",
      "locale" : "ar",
      "scale" : "1x"
    },
    {
      "appearances" : [
        {
          "appearance" : "luminosity",
          "value" : "dark"
        }
      ],
      "idiom" : "universal",
      "locale" : "ar",
      "scale" : "1x"
    },
    {
      "filename" : "Arabic scaled.png",
      "idiom" : "universal",
      "locale" : "ar",
      "scale" : "2x"
    },
    {
      "appearances" : [
        {
          "appearance" : "luminosity",
          "value" : "light"
        }
      ],
      "filename" : "Arabic scaled-1.png",
      "idiom" : "universal",
      "locale" : "ar",
      "scale" : "2x"
    },
    {
      "appearances" : [
        {
          "appearance" : "luminosity",
          "value" : "dark"
        }
      ],
      "filename" : "Arabic calypso scaled.png",
      "idiom" : "universal",
      "locale" : "ar",
      "scale" : "2x"
    },
    {
      "filename" : "Arabic-1.png",
      "idiom" : "universal",
      "locale" : "ar",
      "scale" : "3x"
    },
    {
      "appearances" : [
        {
          "appearance" : "luminosity",
          "value" : "light"
        }
      ],
      "filename" : "Arabic.png",
      "idiom" : "universal",
      "locale" : "ar",
      "scale" : "3x"
    },
    {
      "appearances" : [
        {
          "appearance" : "luminosity",
          "value" : "dark"
        }
      ],
      "filename" : "Arabic calypso.png",
      "idiom" : "universal",
      "locale" : "ar",
      "scale" : "3x"
    }
  ],
  "info" : {
    "author" : "xcode",
    "version" : 1
  },
  "properties" : {
    "localizable" : true
  }
}
